Chapter 17 Codebook | How to be civil about political loss – The importance of good loser messages
…
            How to be civil about political loss – The importance of good loser messages

Chapter 17 Codebook

This chapter displays the codebook for the Good Loser data set, generated using the R package “codebook”.

## # A tibble: 2,819 x 19
##    responseid r13pad1 r13pad2 r13pad3 r13pad4 r13pad5_avsender r13pad5_sak
##         <dbl> <dbl+l> <dbl+l> <dbl+l> <dbl+l>        <dbl+lbl>   <dbl+lbl>
##  1    1000010 1 [I a~ 3 [Fai~ 2 [I a~ 4 [Not~ 5 [The local ne~ 2 [in the ~
##  2    1000018 1 [I a~ 4 [Not~ 1 [I a~ 4 [Not~ 5 [The local ne~ 1 [in the ~
##  3    1000023 2 [I a~ 4 [Not~ 1 [I a~ 4 [Not~ 7 [The local ne~ 1 [in the ~
##  4    1000038 1 [I a~ 3 [Fai~ 2 [I a~ 2 [Imp~ 1 [[BLANK]]      1 [in the ~
##  5    1000043 1 [I a~ 3 [Fai~ 1 [I a~ 3 [Fai~ 1 [[BLANK]]      1 [in the ~
##  6    1000045 2 [I a~ 1 [Ver~ 2 [I a~ 4 [Not~ 4 [The leader o~ 1 [in the ~
##  7    1000049 1 [I a~ 1 [Ver~ 2 [I a~ 1 [Ver~ 2 [The leader o~ 1 [in the ~
##  8    1000051 1 [I a~ 5 [Not~ 1 [I a~ 4 [Not~ 3 [The leader o~ 1 [in the ~
##  9    1000058 2 [I a~ 3 [Fai~ 1 [I a~ 4 [Not~ 2 [The leader o~ 1 [in the ~
## 10    1000062 2 [I a~ 5 [Not~ 1 [I a~ 4 [Not~ 5 [The local ne~ 1 [in the ~
## # ... with 2,809 more rows, and 12 more variables: r13pad5_utfall <dbl+lbl>,
## #   r13pad5_vinner <dbl+lbl>, r13pad5_vinnermargin <dbl+lbl>,
## #   r13pad6_ran <dbl+lbl>, r13pad6a <dbl+lbl>, r13pad6b <dbl+lbl>,
## #   r13pad7a <dbl+lbl>, r13pad7b <dbl+lbl>, r13pad8a <dbl+lbl>,
## #   r13pad8b <dbl+lbl>, Scale_time <chr>, time <dbl>
…
