Chapter 7 Codebook | The Good Loser
…
            The Good Loser

Chapter 7 Codebook

This chapter displays the codebook for the data set of the first Good Loser experiment, generated using the R package “codebook”.

## # A tibble: 17,011 x 30
##    responseid   r9pad1   r9pad2   r9pad3 r10panelpad  r10pad1  r10pad2
##         <dbl> <dbl+lb> <dbl+lb> <dbl+lb>   <dbl+lbl> <dbl+lb> <dbl+lb>
##  1         NA NA       NA       NA       NA          NA       NA      
##  2    1000001 NA       NA       NA        0 [Histor… 98 [Not… 98 [Not…
##  3    1000002 NA       NA       NA        0 [Histor… 98 [Not… 98 [Not…
##  4    1000003 NA       NA       NA       NA          NA       NA      
##  5    1000004 NA       NA       NA       NA          NA       NA      
##  6    1000005 NA       NA       NA       NA          NA       NA      
##  7    1000006 NA       NA       NA       NA          NA       NA      
##  8    1000007 98 [Not… 98 [Not… 98 [Not… NA          NA       NA      
##  9    1000008 NA       NA       NA       NA          NA       NA      
## 10    1000009 NA       NA       NA       NA          NA       NA      
## # … with 17,001 more rows, and 23 more variables: r10pad3_mobil <dbl+lbl>,
## #   r10pad3a_ran <dbl+lbl>, r10pad3b_ran <dbl+lbl>, r10pad3ended <dbl>,
## #   r10pad3error <dbl>, r10pad3paused <dbl>, r10pad3played <dbl>,
## #   r10pad3_timespent <dbl>, r10pad4 <dbl+lbl>, r10pad4_comment <chr>,
## #   r10pad5 <dbl+lbl>, r10pad6 <dbl+lbl>, r10pad7 <dbl+lbl>, r10pad8 <dbl+lbl>,
## #   r10pad9 <dbl+lbl>, r10pad1_9_backward_1 <dbl+lbl>,
## #   r10pad1_9_backward_2 <dbl+lbl>, r10pad1_9_backward_3 <dbl+lbl>,
## #   r10pad1_9_backward_4 <dbl+lbl>, r10pad1_9_backward_5 <dbl+lbl>,
## #   r10pad1_9_backward_6 <dbl+lbl>, r10pad1_9_backward_7 <dbl+lbl>,
…
