Chapter 2 Codebook | The Good Loser
…
## Loading required package: codebook

if(!require("haven")){install.packages("haven");  library(haven)}

## Loading required package: haven

d <- read_sav("Data/Goodloser-exp1-orig.sav")

detect_missings(d, ninety_nine_problems = TRUE, negative_values_are_missing = TRUE)

## Warning: We renamed this function so as not to incorrectly pluralise
## the word 'missing'.

## # A tibble: 1,019 x 14
##      Q64     Q63  S3_1_1  S3_2_1 S3_4_1_1 S3_4_1_2  S3_5_1 S3_6_1_1 S3_6_1_2
##    <dbl> <dbl+l> <dbl+l> <dbl+l> <dbl+lb> <dbl+lb> <dbl+l> <dbl+lb> <dbl+lb>
##  1    52 2 [Kvi… 1 [Jag… 5 [5]   1 [1 In…       NA 4 [4]   1 [1 My…       NA
##  2    30 2 [Kvi… 2 [Jag… 3 [3]   4 [4]          NA 4 [4]   5 [5]          NA
##  3    64 2 [Kvi… 1 [Jag… 4 [4]   5 [5]          NA 2 [2]   2 [2]          NA
##  4    43 2 [Kvi… 2 [Jag… 2 [2]   4 [4]          NA 4 [4]   7 [7 My…       NA
##  5    74 1 [Man] 2 [Jag… 7 [7 M… 4 [4]          NA 4 [4]   4 [4]          NA
##  6    51 2 [Kvi… 1 [Jag… 4 [4]   1 [1 In…       NA 1 [1 M… 4 [4]          NA
##  7    58 1 [Man] 2 [Jag… 7 [7 M… 7 [7 My…       NA 7 [7 M… 6 [6]          NA
##  8    55 1 [Man] 2 [Jag… 4 [4]   4 [4]          NA 4 [4]   6 [6]          NA
##  9    68 2 [Kvi… 2 [Jag… 3 [3]   3 [3]          NA 3 [3]   3 [3]          NA
## 10    32 1 [Man] 2 [Jag… 5 [5]   6 [6]          NA 6 [6]   5 [5]          NA
## # … with 1,009 more rows, and 5 more variables: S3_7_1_1 <dbl+lbl>,
## #   S3_7_1_2 <dbl+lbl>, S3_8_1_1 <dbl+lbl>, S3_8_1_2 <dbl+lbl>,
## #   Studie3sel <dbl+lbl>
…
